Multistage Genetic Stock Identification • Ms.GSI
…
Individual assignment summary:

indiv_assign(msgsi_out, msgsi_dat)
#> # A tibble: 150 × 13
#>    ID      Russia `Coastal West Alaska` `North Alaska Peninsula`
#>  * <chr>    <dbl>                 <dbl>                    <dbl>
#>  1 fish_1  0                     0.485                    0     
#>  2 fish_2  0                     0.3                      0.0875
#>  3 fish_3  0.01                  0.0575                   0.405 
#>  4 fish_4  0                     0.415                    0.0275
#>  5 fish_5  0                     0.457                    0.01  
#>  6 fish_6  0                     0.31                     0     
#>  7 fish_7  0.09                  0.172                    0.178 
#>  8 fish_8  0.155                 0.225                    0.0325
#>  9 fish_9  0.0075                0.258                    0.005 
#> 10 fish_10 0.0425                0.155                    0.06  
#> # ℹ 140 more rows
#> # ℹ 9 more variables: `Northwest Gulf of Alaska` <dbl>, Copper <dbl>,
#> #   `Northeast Gulf of Alaska` <dbl>, `Coastal Southeast Alaska` <dbl>,
#> #   `British Columbia` <dbl>, `WA/OR/CA` <dbl>, `Lower Yukon` <dbl>,
#> #   `Middle Yukon` <dbl>, `Upper Yukon` <dbl>
…
