*Ms.GSI* in the multistage of genetic stock identification madness • Ms.GSI
…
Mixture

First we will take a look at the baseline and mixture samples.
Ms.GSI accepts the genotype information in two format: 1) GCL
format or 2) package rubias format. The example data sets are
in rubias format and naming convention, but procedures for GCL
format are the same1.

print(dplyr::as_tibble(mix))
#> # A tibble: 150 × 358
#>    sample_type repunit collection indiv   `GTH2B-550` `GTH2B-550.1` NOD1  NOD1.1
#>    <chr>       <lgl>   <chr>      <chr>   <chr>       <chr>         <chr> <chr> 
#>  1 mixture     NA      Bering Sea fish_1  C           G             C     C     
#>  2 mixture     NA      Bering Sea fish_2  C           C             C     G     
#>  3 mixture     NA      Bering Sea fish_3  C           C             C     G     
#>  4 mixture     NA      Bering Sea fish_4  C           C             C     C     
#>  5 mixture     NA      Bering Sea fish_5  C           G             C     G     
#>  6 mixture     NA      Bering Sea fish_6  C           C             C     G     
#>  7 mixture     NA      Bering Sea fish_7  C           C             NA    NA    
#>  8 mixture     NA      Bering Sea fish_8  C           G             NA    NA    
#>  9 mixture     NA      Bering Sea fish_9  C           G             C     G     
#> 10 mixture     NA      Bering Sea fish_10 C           G             NA    NA    
#> # ℹ 140 more rows
#> # ℹ 350 more variables: `Ots_100884-287` <chr>, `Ots_100884-287.1` <chr>,
#> #   `Ots_101554-407` <chr>, `Ots_101554-407.1` <chr>, `Ots_102414-395` <chr>,
#> #   `Ots_102414-395.1` <chr>, `Ots_102867-609` <chr>, `Ots_102867-609.1` <chr>,
#> #   `Ots_103041-52` <chr>, `Ots_103041-52.1` <chr>, `Ots_103122-180` <chr>,
#> #   `Ots_103122-180.1` <chr>, `Ots_104048-194` <chr>, `Ots_104048-194.1` <chr>,
#> #   `Ots_104063-132` <chr>, `Ots_104063-132.1` <chr>, `Ots_104415-88` <chr>, …
…
Broad-scale baseline

Next, we will take a look at the broad-scale (Templin) baseline
example provided in Ms.GSI. There are originally 45 loci in the
Templin baseline, but we reduced the marker set to 28 loci due to
limitation on the data size (and other technical reasons). However, for
demonstration purpose, this data set will suffice.

print(dplyr::as_tibble(base_templin))
#> # A tibble: 29,363 × 60
#>    sample_type repunit collection indiv   `GTH2B-550` `GTH2B-550.1` NOD1  NOD1.1
#>    <chr>       <chr>   <chr>      <chr>   <chr>       <chr>         <chr> <chr> 
#>  1 reference   Russia  KBIST98L   KBIST9… C           C             C     G     
#>  2 reference   Russia  KBIST98L   KBIST9… C           G             C     G     
#>  3 reference   Russia  KBIST98L   KBIST9… C           G             C     G     
#>  4 reference   Russia  KBIST98L   KBIST9… C           C             G     G     
#>  5 reference   Russia  KBIST98L   KBIST9… C           G             G     G     
#>  6 reference   Russia  KBIST98L   KBIST9… C           C             C     C     
#>  7 reference   Russia  KBIST98L   KBIST9… C           G             C     G     
#>  8 reference   Russia  KBIST98L   KBIST9… C           C             C     G     
#>  9 reference   Russia  KBIST98L   KBIST9… C           G             C     G     
#> 10 reference   Russia  KBIST98L   KBIST9… C           C             G     G     
#> # ℹ 29,353 more rows
#> # ℹ 52 more variables: `Ots_2KER-137` <chr>, `Ots_2KER-137.1` <chr>,
#> #   `Ots_AsnRS-72` <chr>, `Ots_AsnRS-72.1` <chr>, Ots_ETIF1A <chr>,
#> #   Ots_ETIF1A.1 <chr>, `Ots_GPH-318` <chr>, `Ots_GPH-318.1` <chr>,
#> #   `Ots_GST-207` <chr>, `Ots_GST-207.1` <chr>, `Ots_hnRNPL-533` <chr>,
#> #   `Ots_hnRNPL-533.1` <chr>, `Ots_HSP90B-100` <chr>, `Ots_HSP90B-100.1` <chr>,
#> #   `Ots_IGF1-91` <chr>, `Ots_IGF1-91.1` <chr>, `Ots_IK1-328` <chr>, …

Regional baseline

The regional baseline (Yukon) is in the same format. There are
originally 380 loci in the Yukon River Chinook baseline, but we reduced
the numbers to 177 in this demonstration.

print(dplyr::as_tibble(base_yukon))
#> # A tibble: 5,435 × 358
#>    sample_type repunit   collection indiv `GTH2B-550` `GTH2B-550.1` NOD1  NOD1.1
#>    <chr>       <chr>     <chr>      <chr> <chr>       <chr>         <chr> <chr> 
#>  1 reference   Lower Yu… KANDR02.K… KAND… G           G             C     C     
#>  2 reference   Lower Yu… KANDR02.K… KAND… C           G             C     C     
#>  3 reference   Lower Yu… KANDR02.K… KAND… G           G             C     C     
#>  4 reference   Lower Yu… KANDR02.K… KAND… G           G             C     G     
#>  5 reference   Lower Yu… KANDR02.K… KAND… C           G             C     C     
#>  6 reference   Lower Yu… KANDR02.K… KAND… C           C             C     C     
#>  7 reference   Lower Yu… KANDR02.K… KAND… C           G             G     G     
#>  8 reference   Lower Yu… KANDR02.K… KAND… C           C             G     G     
#>  9 reference   Lower Yu… KANDR02.K… KAND… C           C             G     G     
#> 10 reference   Lower Yu… KANDR02.K… KAND… C           G             C     G     
#> # ℹ 5,425 more rows
#> # ℹ 350 more variables: `Ots_100884-287` <chr>, `Ots_100884-287.1` <chr>,
#> #   `Ots_101554-407` <chr>, `Ots_101554-407.1` <chr>, `Ots_102414-395` <chr>,
#> #   `Ots_102414-395.1` <chr>, `Ots_102867-609` <chr>, `Ots_102867-609.1` <chr>,
#> #   `Ots_103041-52` <chr>, `Ots_103041-52.1` <chr>, `Ots_103122-180` <chr>,
#> #   `Ots_103122-180.1` <chr>, `Ots_104048-194` <chr>, `Ots_104048-194.1` <chr>,
#> #   `Ots_104063-132` <chr>, `Ots_104063-132.1` <chr>, `Ots_104415-88` <chr>, …

Population information

Another piece of information needed is the population details for
each baseline. You need to include three columns in the population
information table. Column collection contains the names for
each population in the baseline. Column reunit specifies
the reporting group each population belongs to. Column
grpvec specifies the identification number for each
reporting group. Below shows the first ten rows of population
information for the Templin (broad-scale) baseline.

print(dplyr::as_tibble(templin_pops211))
#> # A tibble: 211 × 3
#>    collection       repunit             grpvec
#>    <chr>            <chr>                <dbl>
#>  1 KBIST98L         Russia                   1
#>  2 KBOLS02.KBOLS98E Russia                   1
#>  3 KKAMC97.KKAMC98L Russia                   1
#>  4 KPAKH02          Russia                   1
#>  5 KPILG05.KPILG06  Coastal West Alaska      2
#>  6 KUNAL05          Coastal West Alaska      2
#>  7 KGOLS05.KGOLS06  Coastal West Alaska      2
#>  8 KANDR02.KANDR03  Lower Yukon              3
#>  9 KANVI02          Lower Yukon              3
#> 10 KGISA01          Lower Yukon              3
#> # ℹ 201 more rows
…
Population information table for the Yukon (regional) baseline is in
the same format, but not necessarily in the same order.

print(dplyr::as_tibble(yukon_pops50))
#> # A tibble: 50 × 3
#>    collection                          grpvec repunit     
#>    <chr>                                <dbl> <chr>       
#>  1 KANDR02.KANDR03                          1 Lower Yukon 
#>  2 KANVI03.KANVI07                          1 Lower Yukon 
#>  3 KNUL12SF                                 1 Lower Yukon 
#>  4 KNUL12NF                                 1 Lower Yukon 
#>  5 KGISA01                                  1 Lower Yukon 
#>  6 KKATE02.KKATE12                          1 Lower Yukon 
#>  7 KHENS01                                  2 Middle Yukon
#>  8 KHENS07.KHENS15                          2 Middle Yukon
#>  9 KSFKOY03                                 2 Middle Yukon
#> 10 KMFKOY10.KMFKOY11.KMFKOY12.KMFKOY13      2 Middle Yukon
#> # ℹ 40 more rows
…
Items with “trace” are the posterior sample history, or trace
history, for either stage one, two, or combined. Trace history is needed
for making trace plots. And if you need to combine reporting groups
proportions or combine variance, trace histories are what you need.
trace_ items are tibbles with each reporting group as a
column. There are two additional columns, itr and
chain, to identify Markov chain Monte Carlo (MCMC) sampling
iteration and chain.

msgsi_out$trace_comb
#> # A tibble: 100 × 14
#>      Russia `Coastal West Alaska` North Alaska Peninsul…¹ Northwest Gulf of Al…²
#>       <dbl>                 <dbl>                   <dbl>                  <dbl>
#>  1 5.65e-19                 0.175                7.99e- 8                  0.346
#>  2 2.67e- 4                 0.149                7.20e-17                  0.288
#>  3 3.98e-15                 0.143                6.81e-10                  0.260
#>  4 9.83e- 7                 0.107                3.19e-15                  0.324
#>  5 3.17e- 7                 0.153                7.02e- 4                  0.336
#>  6 1.64e-12                 0.140                1.36e-14                  0.339
#>  7 7.23e- 6                 0.137                1.74e- 3                  0.407
#>  8 1.58e- 5                 0.174                1.02e-16                  0.450
#>  9 8.47e- 4                 0.224                4.03e-15                  0.352
#> 10 3.00e- 3                 0.201                9.55e- 4                  0.392
#> # ℹ 90 more rows
#> # ℹ abbreviated names: ¹​`North Alaska Peninsula`, ²​`Northwest Gulf of Alaska`
#> # ℹ 10 more variables: Copper <dbl>, `Northeast Gulf of Alaska` <dbl>,
#> #   `Coastal Southeast Alaska` <dbl>, `British Columbia` <dbl>,
#> #   `WA/OR/CA` <dbl>, `Lower Yukon` <dbl>, `Middle Yukon` <dbl>,
#> #   `Upper Yukon` <dbl>, itr <dbl>, chain <dbl>

Individual assignments

The last two items in the output are the identity assignment history
of each individual in the mixture sample. Each column represents an
individual in the mixture, and each row records the identity assigned
during each iteration in each chain. These numbers are the population
identifiers in the same order as your population information files (and
baseline files). Individuals are ordered in the same as the input data
(i.e., mixture data).

msgsi_out$idens_t1
#> # A tibble: 100 × 150
#>       V1    V2    V3    V4    V5    V6    V7    V8    V9   V10   V11   V12   V13
#>    <int> <int> <int> <int> <int> <int> <int> <int> <int> <int> <int> <int> <int>
#>  1    11   192    11    56    97   152    97    95    32    56    84   192    97
#>  2    95    84    97    11    56   152    97   192    95    11    84    11    11
#>  3    84    87   192    95    84    11    97    32    11    11    97    84    11
#>  4    15    11    11   192    97   152    97   192    97    11    97    11    11
#>  5    11    11    11    32    39   152    97    87    11    11    97    97    56
#>  6    11   152    97    11    84    97    97    39    11    11    97    32    56
#>  7    11    87    97    87    56    11    97    11    56   192    11    84    11
#>  8    11    11    56    56    32   152    97    32    56    56    32    11    11
#>  9    11    56    32    32    56    84    97    39    87    87    84    84    84
#> 10    32    11   192    84    56   152   152    87    32    56    11    39    84
#> # ℹ 90 more rows
#> # ℹ 137 more variables: V14 <int>, V15 <int>, V16 <int>, V17 <int>, V18 <int>,
#> #   V19 <int>, V20 <int>, V21 <int>, V22 <int>, V23 <int>, V24 <int>,
#> #   V25 <int>, V26 <int>, V27 <int>, V28 <int>, V29 <int>, V30 <int>,
#> #   V31 <int>, V32 <int>, V33 <int>, V34 <int>, V35 <int>, V36 <int>,
#> #   V37 <int>, V38 <int>, V39 <int>, V40 <int>, V41 <int>, V42 <int>,
#> #   V43 <int>, V44 <int>, V45 <int>, V46 <int>, V47 <int>, V48 <int>, …

Individual identity output in this format may not be very useful for
most users. So, Ms.GSI has a function
indiv_assign() that summarize the reporting group
assignment probabilities for each individual in the mixture.

indiv_assign(mdl_out = msgsi_out, mdl_dat = msgsi_dat)
#> # A tibble: 150 × 5
#>    ID       `Not regional` `Lower Yukon` `Middle Yukon` `Upper Yukon`
#>  * <chr>             <dbl>         <dbl>          <dbl>         <dbl>
#>  1 fish_1             0.47          0.53              0             0
#>  2 fish_10            0.42          0.58              0             0
#>  3 fish_100           0.87          0.13              0             0
#>  4 fish_101           0.5           0.5               0             0
#>  5 fish_102           0.86          0.14              0             0
#>  6 fish_103           0.11          0.89              0             0
#>  7 fish_104           0.51          0.49              0             0
#>  8 fish_105           0.78          0.22              0             0
#>  9 fish_106           0.62          0.38              0             0
#> 10 fish_107           0.38          0.62              0             0
#> # ℹ 140 more rows
…
