…
#### Mixture

First we will take a look at the baseline and mixture samples. *Ms.GSI*
accepts the genotype information in two format: 1) GCL format or 2)
package *rubias* format. The example data sets are in *rubias* format
and naming convention, but procedures for GCL format are the
same[¹](#fn1).

``` r

print(dplyr::as_tibble(mix))
#> # A tibble: 150 × 360
#>    sample_type repunit collection known_collection_t1 known_collection_t2 indiv 
#>    <chr>       <lgl>   <chr>      <chr>               <chr>               <chr> 
#>  1 mixture     NA      Bering Sea NA                  NA                  fish_1
#>  2 mixture     NA      Bering Sea NA                  NA                  fish_2
#>  3 mixture     NA      Bering Sea NA                  NA                  fish_3
#>  4 mixture     NA      Bering Sea NA                  NA                  fish_4
#>  5 mixture     NA      Bering Sea NA                  NA                  fish_5
#>  6 mixture     NA      Bering Sea NA                  NA                  fish_6
#>  7 mixture     NA      Bering Sea NA                  NA                  fish_7
#>  8 mixture     NA      Bering Sea NA                  NA                  fish_8
#>  9 mixture     NA      Bering Sea NA                  NA                  fish_9
#> 10 mixture     NA      Bering Sea NA                  NA                  fish_…
#> # ℹ 140 more rows
#> # ℹ 354 more variables: `GTH2B-550` <chr>, `GTH2B-550.1` <chr>, NOD1 <chr>,
#> #   NOD1.1 <chr>, `Ots_100884-287` <chr>, `Ots_100884-287.1` <chr>,
#> #   `Ots_101554-407` <chr>, `Ots_101554-407.1` <chr>, `Ots_102414-395` <chr>,
#> #   `Ots_102414-395.1` <chr>, `Ots_102867-609` <chr>, `Ots_102867-609.1` <chr>,
#> #   `Ots_103041-52` <chr>, `Ots_103041-52.1` <chr>, `Ots_103122-180` <chr>,
#> #   `Ots_103122-180.1` <chr>, `Ots_104048-194` <chr>, …
```
…
#### Broad-scale baseline

Next, we will take a look at the broad-scale (Templin) baseline example
provided in *Ms.GSI*. There are originally 45 loci in the Templin
baseline, but we reduced the marker set to 28 loci due to limitation on
the data size (and other technical reasons). However, for demonstration
purpose, this data set will suffice.

``` r

print(dplyr::as_tibble(base_templin))
#> # A tibble: 29,363 × 60
#>    sample_type repunit collection indiv   `GTH2B-550` `GTH2B-550.1` NOD1  NOD1.1
#>    <chr>       <chr>   <chr>      <chr>   <chr>       <chr>         <chr> <chr> 
#>  1 reference   Russia  KBIST98L   KBIST9… C           C             C     G     
#>  2 reference   Russia  KBIST98L   KBIST9… C           G             C     G     
#>  3 reference   Russia  KBIST98L   KBIST9… C           G             C     G     
#>  4 reference   Russia  KBIST98L   KBIST9… C           C             G     G     
#>  5 reference   Russia  KBIST98L   KBIST9… C           G             G     G     
#>  6 reference   Russia  KBIST98L   KBIST9… C           C             C     C     
#>  7 reference   Russia  KBIST98L   KBIST9… C           G             C     G     
#>  8 reference   Russia  KBIST98L   KBIST9… C           C             C     G     
#>  9 reference   Russia  KBIST98L   KBIST9… C           G             C     G     
#> 10 reference   Russia  KBIST98L   KBIST9… C           C             G     G     
#> # ℹ 29,353 more rows
#> # ℹ 52 more variables: `Ots_2KER-137` <chr>, `Ots_2KER-137.1` <chr>,
#> #   `Ots_AsnRS-72` <chr>, `Ots_AsnRS-72.1` <chr>, Ots_ETIF1A <chr>,
#> #   Ots_ETIF1A.1 <chr>, `Ots_GPH-318` <chr>, `Ots_GPH-318.1` <chr>,
#> #   `Ots_GST-207` <chr>, `Ots_GST-207.1` <chr>, `Ots_hnRNPL-533` <chr>,
#> #   `Ots_hnRNPL-533.1` <chr>, `Ots_HSP90B-100` <chr>, `Ots_HSP90B-100.1` <chr>,
#> #   `Ots_IGF1-91` <chr>, `Ots_IGF1-91.1` <chr>, `Ots_IK1-328` <chr>, …
```

#### Regional baseline

The regional baseline (Yukon) is in the same format. There are
originally 380 loci in the Yukon River Chinook baseline, but we reduced
the numbers to 177 in this demonstration.

``` r

print(dplyr::as_tibble(base_yukon))
#> # A tibble: 5,435 × 358
#>    sample_type repunit   collection indiv `GTH2B-550` `GTH2B-550.1` NOD1  NOD1.1
#>    <chr>       <chr>     <chr>      <chr> <chr>       <chr>         <chr> <chr> 
#>  1 reference   Lower Yu… KANDR02.K… KAND… G           G             C     C     
#>  2 reference   Lower Yu… KANDR02.K… KAND… C           G             C     C     
#>  3 reference   Lower Yu… KANDR02.K… KAND… G           G             C     C     
#>  4 reference   Lower Yu… KANDR02.K… KAND… G           G             C     G     
#>  5 reference   Lower Yu… KANDR02.K… KAND… C           G             C     C     
#>  6 reference   Lower Yu… KANDR02.K… KAND… C           C             C     C     
#>  7 reference   Lower Yu… KANDR02.K… KAND… C           G             G     G     
#>  8 reference   Lower Yu… KANDR02.K… KAND… C           C             G     G     
#>  9 reference   Lower Yu… KANDR02.K… KAND… C           C             G     G     
#> 10 reference   Lower Yu… KANDR02.K… KAND… C           G             C     G     
#> # ℹ 5,425 more rows
#> # ℹ 350 more variables: `Ots_100884-287` <chr>, `Ots_100884-287.1` <chr>,
#> #   `Ots_101554-407` <chr>, `Ots_101554-407.1` <chr>, `Ots_102414-395` <chr>,
#> #   `Ots_102414-395.1` <chr>, `Ots_102867-609` <chr>, `Ots_102867-609.1` <chr>,
#> #   `Ots_103041-52` <chr>, `Ots_103041-52.1` <chr>, `Ots_103122-180` <chr>,
#> #   `Ots_103122-180.1` <chr>, `Ots_104048-194` <chr>, `Ots_104048-194.1` <chr>,
#> #   `Ots_104063-132` <chr>, `Ots_104063-132.1` <chr>, `Ots_104415-88` <chr>, …
```
#### Population information

Another piece of information needed is the population details for each
baseline. You need to include three columns in the population
information table. Column `collection` contains the names for each
population in the baseline. Column `reunit` specifies the reporting
group each population belongs to. Column `grpvec` specifies the
identification number for each reporting group. Below shows the first
ten rows of population information for the Templin (broad-scale)
baseline.

``` r

print(dplyr::as_tibble(templin_pops211))
#> # A tibble: 211 × 3
#>    collection       repunit             grpvec
#>    <chr>            <chr>                <dbl>
#>  1 KBIST98L         Russia                   1
#>  2 KBOLS02.KBOLS98E Russia                   1
#>  3 KKAMC97.KKAMC98L Russia                   1
#>  4 KPAKH02          Russia                   1
#>  5 KPILG05.KPILG06  Coastal West Alaska      2
#>  6 KUNAL05          Coastal West Alaska      2
#>  7 KGOLS05.KGOLS06  Coastal West Alaska      2
#>  8 KANDR02.KANDR03  Lower Yukon              3
#>  9 KANVI02          Lower Yukon              3
#> 10 KGISA01          Lower Yukon              3
#> # ℹ 201 more rows
```
…
Population information table for the Yukon (regional) baseline is in the
same format, but not necessarily in the same order.

``` r

print(dplyr::as_tibble(yukon_pops50))
#> # A tibble: 50 × 3
#>    collection                          grpvec repunit     
#>    <chr>                                <dbl> <chr>       
#>  1 KANDR02.KANDR03                          1 Lower Yukon 
#>  2 KANVI03.KANVI07                          1 Lower Yukon 
#>  3 KNUL12SF                                 1 Lower Yukon 
#>  4 KNUL12NF                                 1 Lower Yukon 
#>  5 KGISA01                                  1 Lower Yukon 
#>  6 KKATE02.KKATE12                          1 Lower Yukon 
#>  7 KHENS01                                  2 Middle Yukon
#>  8 KHENS07.KHENS15                          2 Middle Yukon
#>  9 KSFKOY03                                 2 Middle Yukon
#> 10 KMFKOY10.KMFKOY11.KMFKOY12.KMFKOY13      2 Middle Yukon
#> # ℹ 40 more rows
```
…
`comb_groups` are provided in the output as reference for functions
making trace plots
([`tr_plot()`](https://boppingshoe.github.io/Ms.GSI/reference/tr_plot.md))
and stratified estimator
([`stratified_estimator_msgsi()`](https://boppingshoe.github.io/Ms.GSI/reference/stratified_estimator_msgsi.md)).
Grouping for stage one and two can also be found in the input data.

``` r

msgsi_out$trace_comb
#> # A tibble: 100 × 238
#>    CHBIG92.KIBIG93.KBIGB04.KBIGB95 CHCRY92.KICRY94.KCRYA05 CHDMT92.KDEER94
#>                              <dbl>                   <dbl>           <dbl>
#>  1                       2.15e- 16               1.22e-191       2.60e- 96
#>  2                       2.96e-112               2.38e-  3       2.23e-308
#>  3                       7.11e- 21               3.75e-  3       2.23e-308
#>  4                       2.48e- 52               1.12e-  3       5.88e- 31
#>  5                       2.08e- 22               3.40e-  3       8.95e- 19
#>  6                       1.07e- 11               1.01e-  2       1.06e- 50
#>  7                       2.97e-  9               1.17e-  3       8.02e-124
#>  8                       1.30e- 22               2.83e- 37       5.79e- 41
#>  9                       1.08e- 41               1.78e-169       5.70e-295
#> 10                       7.37e- 34               2.23e-308       1.64e- 64
#> # ℹ 90 more rows
#> # ℹ 235 more variables: CHKAN92.KIKAN93.KKANE05 <dbl>,
#> #   CHKOG92.KIKOG93.KKOGR05 <dbl>, CHNUU92.KINUS93 <dbl>,
#> #   CHTAH92.KTAHI04 <dbl>, CHWHI92.KWHIT98.KWHITC05 <dbl>, KALSE04 <dbl>,
#> #   KANCH06.KANCH10 <dbl>, KANDR89.KANDR04 <dbl>, KAROL05 <dbl>,
#> #   KBENJ05.KBENJ06 <dbl>, KBIGCK04 <dbl>, KBIGQU96 <dbl>,
#> #   KBIRK01.KBIRK02.KBIRK03.KBIRK97.KBIRK99 <dbl>, KBIST98L <dbl>, …
```

#### Stock-specific total catch

The output also includes the trace history of total catch for each
reporting group (i.e., stock-specific total catch). Each column
represents a reporting group in the baseline, and each row records the
harvest count during each iteration in each chain.

``` r

msgsi_out$sstc_trace_t2
#> # A tibble: 100 × 52
#>    CHSID92j K100MILECR16.K100MILECR15 KANDR02.KANDR03 KANVI03.KANVI07 KBEAV97
#>       <dbl>                     <dbl>           <dbl>           <dbl>   <dbl>
#>  1        0                         0              35              71       3
#>  2        0                         0              40              38       3
#>  3        0                         0              28              29       3
#>  4        0                         0              23              32       1
#>  5        0                         0              30              33       5
#>  6        0                         0              28              48       0
#>  7        0                         0              31              34       0
#>  8        0                         0              19              36       0
#>  9        0                         0              37              31       0
#> 10        0                         0              51              18       0
#> # ℹ 90 more rows
#> # ℹ 47 more variables: KBIGS87.KBIGS07 <dbl>, KBLIN03.KBLIN08 <dbl>,
#> #   KCHAN04 <dbl>, KCHAT01.KCHAT07 <dbl>, KCHAU01.KCHAU03 <dbl>,
#> #   KCHENA01 <dbl>, KCOLEE11.KCOLEE13.KCOLEE17 <dbl>, KGISA01 <dbl>,
#> #   KGLEN03.KGLEN04.KGLEN05 <dbl>, KGOODP06.KGOODP07.KGOODP11.KGOODP12 <dbl>,
#> #   KHENS01 <dbl>, KHENS07.KHENS15 <dbl>, KHOOL16.KHOOL17 <dbl>,
#> #   KKANDI07.KKANDI08.KKANDI09.KKANDI10 <dbl>, KKANT05 <dbl>, …
```
…
#### Individual assignments

The next two items in the output are the identity assignment history of
each individual in the mixture sample. Each column represents an
individual in the mixture, and each row records the identity assigned
during each iteration in each chain. These numbers are the population
identifiers in the same order as your population information files (and
baseline files). Individuals are ordered in the same as the input data
(i.e., mixture data).

``` r

msgsi_out$idens_t1
#> # A tibble: 100 × 152
#>    fish_1 fish_2 fish_3 fish_4 fish_5 fish_6 fish_7 fish_8 fish_9 fish_10
#>     <dbl>  <dbl>  <dbl>  <dbl>  <dbl>  <dbl>  <dbl>  <dbl>  <dbl>   <dbl>
#>  1    116    116    142    116     11    182     11    182     11     116
#>  2    116     11    116    116    116    182     11     11     11      11
#>  3    116     11    142    116    116     11     11     93    182     116
#>  4    116     11     11    116     93     11    125    116     11      36
#>  5    116     11     11     11    116    182     11     11    184     125
#>  6    116     11     11    116    116     93     11     11     11     116
#>  7     11     11     11     11     11     69     11     11    142     182
#>  8     11     11     11    182     11    182     25     25    116     142
#>  9     11     11    182     11     11     93     11    116     11      35
#> 10     11    116    116    116     11     11     11    116     11     142
#> # ℹ 90 more rows
#> # ℹ 142 more variables: fish_11 <dbl>, fish_12 <dbl>, fish_13 <dbl>,
#> #   fish_14 <dbl>, fish_15 <dbl>, fish_16 <dbl>, fish_17 <dbl>, fish_18 <dbl>,
#> #   fish_19 <dbl>, fish_20 <dbl>, fish_21 <dbl>, fish_22 <dbl>, fish_23 <dbl>,
#> #   fish_24 <dbl>, fish_25 <dbl>, fish_26 <dbl>, fish_27 <dbl>, fish_28 <dbl>,
#> #   fish_29 <dbl>, fish_30 <dbl>, fish_31 <dbl>, fish_32 <dbl>, fish_33 <dbl>,
#> #   fish_34 <dbl>, fish_35 <dbl>, fish_36 <dbl>, fish_37 <dbl>, …
```

Individual identity output in this format may not be very useful for
most users. So, *Ms.GSI* has a function
[`indiv_assign()`](https://boppingshoe.github.io/Ms.GSI/reference/indiv_assign.md)
that summarize the reporting group assignment probabilities for each
individual in the mixture.

``` r

indiv_assign(mdl_out = msgsi_out, mdl_dat = msgsi_dat)
#> # A tibble: 150 × 13
#>    ID      Russia `Coastal West Alaska` `North Alaska Peninsula`
#>  * <chr>    <dbl>                 <dbl>                    <dbl>
#>  1 fish_1    0                     0.16                     0   
#>  2 fish_2    0                     0.06                     0.03
#>  3 fish_3    0.01                  0.06                     0.08
#>  4 fish_4    0                     0.13                     0.01
#>  5 fish_5    0                     0.14                     0   
#>  6 fish_6    0                     0.03                     0   
#>  7 fish_7    0.14                  0.01                     0.02
#>  8 fish_8    0.16                  0.09                     0   
#>  9 fish_9    0                     0.07                     0   
#> 10 fish_10   0.12                  0.05                     0.04
#> # ℹ 140 more rows
#> # ℹ 9 more variables: `Northwest Gulf of Alaska` <dbl>, Copper <dbl>,
#> #   `Northeast Gulf of Alaska` <dbl>, `Coastal Southeast Alaska` <dbl>,
#> #   `British Columbia` <dbl>, `WA/OR/CA` <dbl>, `Lower Yukon` <dbl>,
#> #   `Middle Yukon` <dbl>, `Upper Yukon` <dbl>
```
…
The same can be done by specifying collections:

``` r
new_groups_collection <- msgsi_out$comb_groups |>
  dplyr::left_join(new_groups, by = "repunit")

new_groups_collection
#> # A tibble: 236 × 3
#>    collection                      repunit                  new_repunit
#>    <chr>                           <chr>                    <chr>      
#>  1 CHBIG92.KIBIG93.KBIGB04.KBIGB95 Northeast Gulf of Alaska Broad      
#>  2 CHCRY92.KICRY94.KCRYA05         Coastal Southeast Alaska Broad      
#>  3 CHDMT92.KDEER94                 Coastal Southeast Alaska Broad      
#>  4 CHKAN92.KIKAN93.KKANE05         Coastal West Alaska      Broad      
#>  5 CHKOG92.KIKOG93.KKOGR05         Coastal West Alaska      Broad      
#>  6 CHNUU92.KINUS93                 Coastal West Alaska      Broad      
#>  7 CHTAH92.KTAHI04                 Northeast Gulf of Alaska Broad      
#>  8 CHWHI92.KWHIT98.KWHITC05        Coastal Southeast Alaska Broad      
#>  9 KALSE04                         WA/OR/CA                 Broad      
#> 10 KANCH06.KANCH10                 Northwest Gulf of Alaska Broad      
#> # ℹ 226 more rows
…
